d75ac-83b7a
58711-1066d
17f2c-859af
b42ee-2feb4
edfdd-453f6
6d183-33f1a
fa735-14c6b
d459c-05fbc
8957b-24d4b
89cca-b28b7
0fbcd-c965e
c671e-dcbae
cfb8c-c5726
1c0f0-2cc09
3a6f3-76c03
dbcc6-ec095